# setting LC_ALL to "C"
# --> Including file '/var/clus/usera/jonesc/LHCbCMake/Rec/Rec/LumiAlgs/job/LumiCheckCondDB.py'
# <-- End of file '/var/clus/usera/jonesc/LHCbCMake/Rec/Rec/LumiAlgs/job/LumiCheckCondDB.py'
# applying configuration of LHCbApp
# /***** User LHCbApp/LHCbApp ************************************************************************
# |-Persistency    = None
# |-OutputLevel    = 3
# |-DataType       = '2012'
# |-TimeStamp      = False
# |-SkipEvents     = 0
# |-EvtMax         = -1
# |-CondDBtag      = 'cond-20141002'  (default: '')
# |-DQFLAGStag     = ''
# |-IgnoreDQFlags  = True
# |-Monitors       = []  (default: [])
# |-Detectors      = []  (default: [])
# |-LocalDataTypes = []  (default: [])
# |-XMLSummary     = None
# |-Simulation     = False
# |-DDDBtag        = ''
# |-OnlineMode     = False
# \----- (End of User LHCbApp/LHCbApp) ---------------------------------------------------------------
# applying configuration of DDDBConf
# WARNING: Using default tag dddb-20150928 for partition DDDB
# WARNING: Using default tag dq-20140822 for partition DQFLAGS
# /***** User DDDBConf/DDDBConf **********************************************************************
# |-DataType    = '2012'
# |-InitialTime = 'Safe'
# |-Simulation  = False
# |-AutoTags    = False
# |-DbRoot      = 'conddb:/lhcb.xml'
# |-OnlineMode  = False
# \----- (End of User DDDBConf/DDDBConf) -------------------------------------------------------------
# skipping configuration of XMLSummary
# applying configuration of CondDB
# /***** User CondDB/CondDB **************************************************************************
# |-Upgrade                    = False
# |-EnableRunStampCheck        = True
# |-DBSnapshotDirectory        = '/group/online/hlt/conditions'
# |-LatestLocalTagsByDataType  = []  (default: [])
# |-Online                     = False
# |-LogFile                    = ''
# |-SQLiteLocalCopiesDir       = ''
# |-EnableRunChangeHandler     = False
# |-RunChangeHandlerConditions = {'online_%d.xml': ['Conditions/Online/LHCb/Magnet/Set', 'Conditions/Online/Velo/MotionSystem', 'Conditions/Online/LHCb/Lumi/LumiSettings', 'Conditions/Online/LHCb/LHCFillingScheme', 'Conditions/Online/LHCb/RunParameters', 'Conditions/Online/Rich1/R1HltGasParameters', 'Conditions/Online/Rich2/R2HltGasParameters']}
# |                            (default: {'online_%d.xml': ['Conditions/Online/LHCb/Magnet/Set', 'Conditions/Online/Velo/MotionSystem', 'Conditions/Online/LHCb/Lumi/LumiSettings', 'Conditions/Online/LHCb/LHCFillingScheme', 'Conditions/Online/LHCb/RunParameters', 'Conditions/Online/Rich1/R1HltGasParameters', 'Conditions/Online/Rich2/R2HltGasParameters']})
# |-Tags                       = {}  (default: {})
# |-LoadCALIBDB                = 'OFFLINE'
# |-AllLocalTagsByDataType     = []  (default: [])
# |-UseOracle                  = False
# |-RunStampCondition          = ''
# |-PartitionConnectionString  = {}  (default: {})
# |-LocalTags                  = {}  (default: {})
# |-IgnoreHeartBeat            = False
# |-Overrides                  = [(0, <CondDBAccessSvc/automatic_LHCBCOND at 0x7fcf3ead1770>)]  (default: [])
# |-Simulation                 = False
# |-QueryGranularity           = 0
# |-LatestGlobalTagByDataType  = ''
# |-UseDBSnapshot              = False
# |-DisableLFC                 = False
# |-HeartBeatCondition         = '/Conditions/Online/LHCb/Tick'
# |-LatestGlobalTagByDataTypes = []  (default: [])
# |-UseLatestTags              = []  (default: [])
# |-OverwriteSQLiteLocalCopy   = False
# \----- (End of User CondDB/CondDB) -----------------------------------------------------------------
ApplicationMgr    SUCCESS
====================================================================================================================================
                                                   Welcome to Rec version v20r0
                                          running on pcmf on Thu Aug 25 13:50:56 2016
====================================================================================================================================
ApplicationMgr       INFO Application Manager Configured successfully
DetectorPersist...   INFO Added successfully Conversion service:XmlCnvSvc
DetectorDataSvc   SUCCESS Detector description database: conddb:/lhcb.xml
CheckDB              INFO Member list: LumiCheckCondDB/CheckCondDB
RndmGenSvc.Engine    INFO Generator engine type:CLHEP::RanluxEngine
RndmGenSvc.Engine    INFO Current Seed:1234567 Luxury:3
RndmGenSvc           INFO Using Random engine:HepRndm::Engine<CLHEP::RanluxEngine>
ToolSvc.Sequenc...   INFO This machine has a speed about   3.55 times the speed of a 2.8 GHz Xeon.
COOLConfSvc          INFO CORAL Connection Retrial Period set to 60s
COOLConfSvc          INFO CORAL Connection Retrial Time-Out set to 900s
automatic_LHCBCOND   INFO Connected to database "sqlite_file:LHCBCOND_Lumi_IOV.db/LHCBCOND"
automatic_LHCBCOND   INFO Using TAG ""
DDDB                 INFO Connected to database "sqlite_file:/afs/cern.ch/lhcb/software/releases/SQLite/SQLDDDB/db/DDDB.db/DDDB"
DDDB                 INFO Using TAG "dddb-20150928"
HistogramPersis...WARNING Histograms saving not required.
ApplicationMgr       INFO Application Manager Initialized successfully
ApplicationMgr       INFO Application Manager Started successfully
EventSelector        INFO End of event input reached.
EventLoopMgr         INFO No more events in event selection
CheckCondDB          INFO ========== Probe DB: START ========== stop
CheckCondDB          INFO Generate event at unix time: 1269817249
CheckCondDB          INFO Event time (UTC) : 2010-03-28 23:00
CheckCondDB          INFO  TCK:           0 OdinFraction:  0 Randomrate:    0 LHCfrequency:  11245 BB RandomRate: 697.9 bunches:       1 absolutescale: 1.634e-11
CheckCondDB          INFO Generate event at unix time: 1270076449
CheckCondDB          INFO Event time (UTC) : 2010-03-31 23:00
CheckCondDB          INFO  TCK:           0 OdinFraction:  0 Randomrate:    0 LHCfrequency:  11245 BB RandomRate: 697.9 bunches:       1 absolutescale: 1.634e-11
CheckCondDB          INFO Generate event at unix time: 1270335649
CheckCondDB          INFO Event time (UTC) : 2010-04-03 23:00
CheckCondDB          INFO  TCK:           0 OdinFraction:  0 Randomrate:    0 LHCfrequency:  11245 BB RandomRate: 697.9 bunches:       1 absolutescale: 1.634e-11
CheckCondDB          INFO Generate event at unix time: 1270594849
CheckCondDB          INFO Event time (UTC) : 2010-04-06 23:00
CheckCondDB          INFO  TCK:           0 OdinFraction:  0 Randomrate:    0 LHCfrequency:  11245 BB RandomRate: 697.9 bunches:       1 absolutescale: 1.634e-11
CheckCondDB          INFO Generate event at unix time: 1270854049
CheckCondDB          INFO Event time (UTC) : 2010-04-09 23:00
CheckCondDB          INFO  TCK:           0 OdinFraction:  0 Randomrate:    0 LHCfrequency:  11245 BB RandomRate: 697.9 bunches:       1 absolutescale: 1.634e-11
CheckCondDB          INFO Generate event at unix time: 1271113249
CheckCondDB          INFO Event time (UTC) : 2010-04-12 23:00
CheckCondDB          INFO  TCK:           0 OdinFraction:  0 Randomrate:    0 LHCfrequency:  11245 BB RandomRate: 697.9 bunches:       1 absolutescale: 1.634e-11
CheckCondDB          INFO Generate event at unix time: 1271372449
CheckCondDB          INFO Event time (UTC) : 2010-04-15 23:00
CheckCondDB          INFO  TCK:           0 OdinFraction:  0 Randomrate:    0 LHCfrequency:  11245 BB RandomRate: 697.9 bunches:       1 absolutescale: 1.634e-11
CheckCondDB          INFO Generate event at unix time: 1271631649
CheckCondDB          INFO Event time (UTC) : 2010-04-18 23:00
CheckCondDB          INFO  TCK:           0 OdinFraction:  0 Randomrate:    0 LHCfrequency:  11245 BB RandomRate: 697.9 bunches:       1 absolutescale: 1.634e-11
CheckCondDB          INFO Generate event at unix time: 1271890849
CheckCondDB          INFO Event time (UTC) : 2010-04-21 23:00
CheckCondDB          INFO  TCK:           0 OdinFraction:  0 Randomrate:    0 LHCfrequency:  11245 BB RandomRate: 697.9 bunches:       1 absolutescale: 1.634e-11
CheckCondDB          INFO Generate event at unix time: 1272150049
CheckCondDB          INFO Event time (UTC) : 2010-04-24 23:00
CheckCondDB          INFO  TCK:           0 OdinFraction:  0 Randomrate:    0 LHCfrequency:  11245 BB RandomRate: 697.9 bunches:       2 absolutescale: 1.634e-11
CheckCondDB          INFO Generate event at unix time: 1272409249
CheckCondDB          INFO Event time (UTC) : 2010-04-27 23:00
CheckCondDB          INFO  TCK:           0 OdinFraction:  0 Randomrate:    0 LHCfrequency:  11245 BB RandomRate: 697.9 bunches:       1 absolutescale: 1.634e-11
CheckCondDB          INFO Generate event at unix time: 1272668449
CheckCondDB          INFO Event time (UTC) : 2010-04-30 23:00
CheckCondDB          INFO  TCK:           0 OdinFraction:  0 Randomrate:    0 LHCfrequency:  11245 BB RandomRate: 697.9 bunches:       1 absolutescale: 1.634e-11
CheckCondDB          INFO Generate event at unix time: 1272927649
CheckCondDB          INFO Event time (UTC) : 2010-05-03 23:00
CheckCondDB          INFO  TCK:           0 OdinFraction:  0 Randomrate:    0 LHCfrequency:  11245 BB RandomRate: 697.9 bunches:       1 absolutescale: 1.634e-11
CheckCondDB          INFO Generate event at unix time: 1273186849
CheckCondDB          INFO Event time (UTC) : 2010-05-06 23:00
CheckCondDB          INFO  TCK:           0 OdinFraction:  0 Randomrate:    0 LHCfrequency:  11245 BB RandomRate: 697.9 bunches:       1 absolutescale: 1.634e-11
CheckCondDB          INFO Generate event at unix time: 1273446049
CheckCondDB          INFO Event time (UTC) : 2010-05-09 23:00
CheckCondDB          INFO  TCK:           0 OdinFraction:  0 Randomrate:    0 LHCfrequency:  11245 BB RandomRate: 697.9 bunches:       1 absolutescale: 1.634e-11
CheckCondDB          INFO Generate event at unix time: 1273705249
CheckCondDB          INFO Event time (UTC) : 2010-05-12 23:00
CheckCondDB          INFO  TCK:           0 OdinFraction:  0 Randomrate:    0 LHCfrequency:  11245 BB RandomRate: 697.9 bunches:       1 absolutescale: 1.634e-11
CheckCondDB          INFO Generate event at unix time: 1273964449
CheckCondDB          INFO Event time (UTC) : 2010-05-15 23:00
CheckCondDB          INFO  TCK:           0 OdinFraction:  0 Randomrate:    0 LHCfrequency:  11245 BB RandomRate: 697.9 bunches:       3 absolutescale: 1.634e-11
CheckCondDB          INFO Generate event at unix time: 1274223649
CheckCondDB          INFO Event time (UTC) : 2010-05-18 23:00
CheckCondDB          INFO  TCK:           0 OdinFraction:  0 Randomrate:    0 LHCfrequency:  11245 BB RandomRate: 697.9 bunches:       3 absolutescale: 1.634e-11
CheckCondDB          INFO Generate event at unix time: 1274482849
CheckCondDB          INFO Event time (UTC) : 2010-05-21 23:00
CheckCondDB          INFO  TCK:           0 OdinFraction:  0 Randomrate:    0 LHCfrequency:  11245 BB RandomRate: 697.9 bunches:       3 absolutescale: 1.634e-11
CheckCondDB          INFO Generate event at unix time: 1274742049
CheckCondDB          INFO Event time (UTC) : 2010-05-24 23:00
CheckCondDB          INFO  TCK:           0 OdinFraction:  0 Randomrate:    0 LHCfrequency:  11245 BB RandomRate: 697.9 bunches:       8 absolutescale: 1.634e-11
CheckCondDB          INFO Generate event at unix time: 1275001249
CheckCondDB          INFO Event time (UTC) : 2010-05-27 23:00
CheckCondDB          INFO  TCK:           0 OdinFraction:  0 Randomrate:    0 LHCfrequency:  11245 BB RandomRate: 697.9 bunches:       8 absolutescale: 1.634e-11
CheckCondDB          INFO Generate event at unix time: 1275260449
CheckCondDB          INFO Event time (UTC) : 2010-05-30 23:00
CheckCondDB          INFO  TCK:           0 OdinFraction:  0 Randomrate:    0 LHCfrequency:  11245 BB RandomRate: 697.9 bunches:       8 absolutescale: 1.634e-11
CheckCondDB          INFO Generate event at unix time: 1275519649
CheckCondDB          INFO Event time (UTC) : 2010-06-02 23:00
CheckCondDB          INFO  TCK:           0 OdinFraction:  0 Randomrate:    0 LHCfrequency:  11245 BB RandomRate: 697.9 bunches:       8 absolutescale: 1.634e-11
CheckCondDB          INFO Generate event at unix time: 1275778849
CheckCondDB          INFO Event time (UTC) : 2010-06-05 23:00
CheckCondDB          INFO  TCK:           0 OdinFraction:  0 Randomrate:    0 LHCfrequency:  11245 BB RandomRate: 697.9 bunches:       8 absolutescale: 1.634e-11
CheckCondDB          INFO Generate event at unix time: 1276038049
CheckCondDB          INFO Event time (UTC) : 2010-06-08 23:00
CheckCondDB          INFO  TCK:           0 OdinFraction:  0 Randomrate:    0 LHCfrequency:  11245 BB RandomRate: 697.9 bunches:       8 absolutescale: 1.634e-11
CheckCondDB          INFO Generate event at unix time: 1276297249
CheckCondDB          INFO Event time (UTC) : 2010-06-11 23:00
CheckCondDB          INFO  TCK:           0 OdinFraction:  0 Randomrate:    0 LHCfrequency:  11245 BB RandomRate: 697.9 bunches:       8 absolutescale: 1.634e-11
CheckCondDB          INFO Generate event at unix time: 1276556449
CheckCondDB          INFO Event time (UTC) : 2010-06-14 23:00
CheckCondDB          INFO  TCK:           0 OdinFraction:  0 Randomrate:    0 LHCfrequency:  11245 BB RandomRate: 697.9 bunches:       8 absolutescale: 1.634e-11
CheckCondDB          INFO Generate event at unix time: 1276815649
CheckCondDB          INFO Event time (UTC) : 2010-06-17 23:00
CheckCondDB          INFO  TCK:           0 OdinFraction:  0 Randomrate:    0 LHCfrequency:  11245 BB RandomRate: 697.9 bunches:       8 absolutescale: 1.634e-11
CheckCondDB          INFO Generate event at unix time: 1277074849
CheckCondDB          INFO Event time (UTC) : 2010-06-20 23:00
CheckCondDB          INFO  TCK:           0 OdinFraction:  0 Randomrate:    0 LHCfrequency:  11245 BB RandomRate: 697.9 bunches:       8 absolutescale: 1.634e-11
CheckCondDB          INFO Generate event at unix time: 1277334049
CheckCondDB          INFO Event time (UTC) : 2010-06-23 23:00
CheckCondDB          INFO  TCK:           0 OdinFraction:  0 Randomrate:    0 LHCfrequency:  11245 BB RandomRate: 697.9 bunches:       8 absolutescale: 1.634e-11
CheckCondDB          INFO Generate event at unix time: 1277593249
CheckCondDB          INFO Event time (UTC) : 2010-06-26 23:00
CheckCondDB          INFO  TCK:           0 OdinFraction:  0 Randomrate:    0 LHCfrequency:  11245 BB RandomRate: 697.9 bunches:       2 absolutescale: 1.634e-11
CheckCondDB          INFO Generate event at unix time: 1277852449
CheckCondDB          INFO Event time (UTC) : 2010-06-29 23:00
CheckCondDB          INFO  TCK:           0 OdinFraction:  0 Randomrate:    0 LHCfrequency:  11245 BB RandomRate: 697.9 bunches:       2 absolutescale: 1.634e-11
CheckCondDB          INFO Generate event at unix time: 1278111649
CheckCondDB          INFO Event time (UTC) : 2010-07-02 23:00
CheckCondDB          INFO  TCK:           0 OdinFraction:  0 Randomrate:    0 LHCfrequency:  11245 BB RandomRate: 697.9 bunches:       4 absolutescale: 1.634e-11
CheckCondDB          INFO Generate event at unix time: 1278370849
CheckCondDB          INFO Event time (UTC) : 2010-07-05 23:00
CheckCondDB          INFO  TCK:           0 OdinFraction:  0 Randomrate:    0 LHCfrequency:  11245 BB RandomRate: 697.9 bunches:       4 absolutescale: 1.634e-11
CheckCondDB          INFO Generate event at unix time: 1278630049
CheckCondDB          INFO Event time (UTC) : 2010-07-08 23:00
CheckCondDB          INFO  TCK:           0 OdinFraction:  0 Randomrate:    0 LHCfrequency:  11245 BB RandomRate: 697.9 bunches:       4 absolutescale: 1.634e-11
CheckCondDB          INFO Generate event at unix time: 1278889249
CheckCondDB          INFO Event time (UTC) : 2010-07-11 23:00
CheckCondDB          INFO  TCK:           0 OdinFraction:  0 Randomrate:    0 LHCfrequency:  11245 BB RandomRate: 697.9 bunches:       4 absolutescale: 1.634e-11
CheckCondDB          INFO Generate event at unix time: 1279148449
CheckCondDB          INFO Event time (UTC) : 2010-07-14 23:00
CheckCondDB          INFO  TCK:           0 OdinFraction:  0 Randomrate:    0 LHCfrequency:  11245 BB RandomRate: 697.9 bunches:       8 absolutescale: 1.634e-11
CheckCondDB          INFO Generate event at unix time: 1279407649
CheckCondDB          INFO Event time (UTC) : 2010-07-17 23:00
CheckCondDB          INFO  TCK:           0 OdinFraction:  0 Randomrate:    0 LHCfrequency:  11245 BB RandomRate: 697.9 bunches:       8 absolutescale: 1.634e-11
CheckCondDB          INFO Generate event at unix time: 1279666849
CheckCondDB          INFO Event time (UTC) : 2010-07-20 23:00
CheckCondDB          INFO  TCK:           0 OdinFraction:  0 Randomrate:    0 LHCfrequency:  11245 BB RandomRate: 697.9 bunches:       8 absolutescale: 1.634e-11
CheckCondDB          INFO Generate event at unix time: 1279926049
CheckCondDB          INFO Event time (UTC) : 2010-07-23 23:00
CheckCondDB          INFO  TCK:           0 OdinFraction:  0 Randomrate:    0 LHCfrequency:  11245 BB RandomRate: 697.9 bunches:       8 absolutescale: 1.634e-11
CheckCondDB          INFO Generate event at unix time: 1280185249
CheckCondDB          INFO Event time (UTC) : 2010-07-26 23:00
CheckCondDB          INFO  TCK:           0 OdinFraction:  0 Randomrate:    0 LHCfrequency:  11245 BB RandomRate: 697.9 bunches:       8 absolutescale: 1.634e-11
CheckCondDB          INFO Generate event at unix time: 1280444449
CheckCondDB          INFO Event time (UTC) : 2010-07-29 23:00
CheckCondDB          INFO  TCK:           0 OdinFraction:  0 Randomrate:    0 LHCfrequency:  11245 BB RandomRate: 697.9 bunches:       16 absolutescale: 1.634e-11
CheckCondDB          INFO Generate event at unix time: 1280703649
CheckCondDB          INFO Event time (UTC) : 2010-08-01 23:00
CheckCondDB          INFO  TCK:           0 OdinFraction:  0 Randomrate:    0 LHCfrequency:  11245 BB RandomRate: 697.9 bunches:       16 absolutescale: 1.634e-11
CheckCondDB          INFO Generate event at unix time: 1280962849
CheckCondDB          INFO Event time (UTC) : 2010-08-04 23:00
CheckCondDB          INFO  TCK:           0 OdinFraction:  0 Randomrate:    0 LHCfrequency:  11245 BB RandomRate: 697.9 bunches:       16 absolutescale: 1.634e-11
CheckCondDB          INFO Generate event at unix time: 1281222049
CheckCondDB          INFO Event time (UTC) : 2010-08-07 23:00
CheckCondDB          INFO  TCK:           0 OdinFraction:  0 Randomrate:    0 LHCfrequency:  11245 BB RandomRate: 697.9 bunches:       16 absolutescale: 1.634e-11
CheckCondDB          INFO Generate event at unix time: 1281481249
CheckCondDB          INFO Event time (UTC) : 2010-08-10 23:00
CheckCondDB          INFO  TCK:           0 OdinFraction:  0 Randomrate:    0 LHCfrequency:  11245 BB RandomRate: 697.9 bunches:       16 absolutescale: 1.634e-11
CheckCondDB          INFO Generate event at unix time: 1281740449
CheckCondDB          INFO Event time (UTC) : 2010-08-13 23:00
CheckCondDB          INFO  TCK:           0 OdinFraction:  0 Randomrate:    0 LHCfrequency:  11245 BB RandomRate: 697.9 bunches:       16 absolutescale: 1.634e-11
CheckCondDB          INFO Generate event at unix time: 1281999649
CheckCondDB          INFO Event time (UTC) : 2010-08-16 23:00
CheckCondDB          INFO  TCK:           0 OdinFraction:  0 Randomrate:    0 LHCfrequency:  11245 BB RandomRate: 697.9 bunches:       16 absolutescale: 1.634e-11
CheckCondDB          INFO Generate event at unix time: 1282258849
CheckCondDB          INFO Event time (UTC) : 2010-08-19 23:00
CheckCondDB          INFO  TCK:           0 OdinFraction:  0 Randomrate:    0 LHCfrequency:  11245 BB RandomRate: 697.9 bunches:       36 absolutescale: 1.634e-11
CheckCondDB          INFO Generate event at unix time: 1282518049
CheckCondDB          INFO Event time (UTC) : 2010-08-22 23:00
CheckCondDB          INFO  TCK:           0 OdinFraction:  0 Randomrate:    0 LHCfrequency:  11245 BB RandomRate: 697.9 bunches:       36 absolutescale: 1.634e-11
CheckCondDB          INFO Generate event at unix time: 1282777249
CheckCondDB          INFO Event time (UTC) : 2010-08-25 23:00
CheckCondDB          INFO  TCK:           0 OdinFraction:  0 Randomrate:    0 LHCfrequency:  11245 BB RandomRate: 697.9 bunches:       35 absolutescale: 1.634e-11
CheckCondDB          INFO Generate event at unix time: 1283036449
CheckCondDB          INFO Event time (UTC) : 2010-08-28 23:00
CheckCondDB          INFO  TCK:           0 OdinFraction:  0 Randomrate:    0 LHCfrequency:  11245 BB RandomRate: 697.9 bunches:       35 absolutescale: 1.634e-11
CheckCondDB          INFO Generate event at unix time: 1283295649
CheckCondDB          INFO Event time (UTC) : 2010-08-31 23:00
CheckCondDB          INFO  TCK:           0 OdinFraction:  0 Randomrate:    0 LHCfrequency:  11245 BB RandomRate: 697.9 bunches:       35 absolutescale: 1.634e-11
CheckCondDB          INFO Generate event at unix time: 1283554849
CheckCondDB          INFO Event time (UTC) : 2010-09-03 23:00
CheckCondDB          INFO  TCK:           0 OdinFraction:  0 Randomrate:    0 LHCfrequency:  11245 BB RandomRate: 697.9 bunches:       35 absolutescale: 1.634e-11
CheckCondDB          INFO Generate event at unix time: 1283814049
CheckCondDB          INFO Event time (UTC) : 2010-09-06 23:00
CheckCondDB          INFO  TCK:           0 OdinFraction:  0 Randomrate:    0 LHCfrequency:  11245 BB RandomRate: 697.9 bunches:       35 absolutescale: 1.634e-11
CheckCondDB          INFO Generate event at unix time: 1284073249
CheckCondDB          INFO Event time (UTC) : 2010-09-09 23:00
CheckCondDB          INFO  TCK:           0 OdinFraction:  0 Randomrate:    0 LHCfrequency:  11245 BB RandomRate: 697.9 bunches:       35 absolutescale: 1.634e-11
CheckCondDB          INFO Generate event at unix time: 1284332449
CheckCondDB          INFO Event time (UTC) : 2010-09-12 23:00
CheckCondDB          INFO  TCK:           0 OdinFraction:  0 Randomrate:    0 LHCfrequency:  11245 BB RandomRate: 697.9 bunches:       35 absolutescale: 1.634e-11
CheckCondDB          INFO Generate event at unix time: 1284591649
CheckCondDB          INFO Event time (UTC) : 2010-09-15 23:00
CheckCondDB          INFO  TCK:           0 OdinFraction:  0 Randomrate:    0 LHCfrequency:  11245 BB RandomRate: 697.9 bunches:       35 absolutescale: 1.634e-11
CheckCondDB          INFO Generate event at unix time: 1284850849
CheckCondDB          INFO Event time (UTC) : 2010-09-18 23:00
CheckCondDB          INFO  TCK:           0 OdinFraction:  0 Randomrate:    0 LHCfrequency:  11245 BB RandomRate: 697.9 bunches:       35 absolutescale: 1.634e-11
CheckCondDB          INFO Generate event at unix time: 1285110049
CheckCondDB          INFO Event time (UTC) : 2010-09-21 23:00
CheckCondDB          INFO  TCK:           0 OdinFraction:  0 Randomrate:    0 LHCfrequency:  11245 BB RandomRate: 697.9 bunches:       35 absolutescale: 1.634e-11
CheckCondDB          INFO Generate event at unix time: 1285369249
CheckCondDB          INFO Event time (UTC) : 2010-09-24 23:00
CheckCondDB          INFO  TCK:           0 OdinFraction:  0 Randomrate:    0 LHCfrequency:  11245 BB RandomRate: 697.9 bunches:       47 absolutescale: 1.634e-11
CheckCondDB          INFO Generate event at unix time: 1285628449
CheckCondDB          INFO Event time (UTC) : 2010-09-27 23:00
CheckCondDB          INFO  TCK:           0 OdinFraction:  0 Randomrate:    0 LHCfrequency:  11245 BB RandomRate: 697.9 bunches:       93 absolutescale: 1.634e-11
CheckCondDB          INFO Generate event at unix time: 1285887649
CheckCondDB          INFO Event time (UTC) : 2010-09-30 23:00
CheckCondDB          INFO  TCK:           0 OdinFraction:  0 Randomrate:    0 LHCfrequency:  11245 BB RandomRate: 697.9 bunches:       12 absolutescale: 1.634e-11
CheckCondDB          INFO Generate event at unix time: 1286146849
CheckCondDB          INFO Event time (UTC) : 2010-10-03 23:00
CheckCondDB          INFO  TCK:           0 OdinFraction:  0 Randomrate:    0 LHCfrequency:  11245 BB RandomRate: 697.9 bunches:       140 absolutescale: 1.634e-11
CheckCondDB          INFO Generate event at unix time: 1286406049
CheckCondDB          INFO Event time (UTC) : 2010-10-06 23:00
CheckCondDB          INFO  TCK:           0 OdinFraction:  0 Randomrate:    0 LHCfrequency:  11245 BB RandomRate: 697.9 bunches:       186 absolutescale: 1.634e-11
CheckCondDB          INFO Generate event at unix time: 1286665249
CheckCondDB          INFO Event time (UTC) : 2010-10-09 23:00
CheckCondDB          INFO  TCK:           0 OdinFraction:  0 Randomrate:    0 LHCfrequency:  11245 BB RandomRate: 697.9 bunches:       233 absolutescale: 1.634e-11
CheckCondDB          INFO Generate event at unix time: 1286924449
CheckCondDB          INFO Event time (UTC) : 2010-10-12 23:00
CheckCondDB          INFO  TCK:           0 OdinFraction:  0 Randomrate:    0 LHCfrequency:  11245 BB RandomRate: 697.9 bunches:       233 absolutescale: 1.634e-11
CheckCondDB          INFO Generate event at unix time: 1287183649
CheckCondDB          INFO Event time (UTC) : 2010-10-15 23:00
CheckCondDB          INFO  TCK:           0 OdinFraction:  0 Randomrate:    0 LHCfrequency:  11245 BB RandomRate: 697.9 bunches:       12 absolutescale: 1.634e-11
CheckCondDB          INFO Generate event at unix time: 1287442849
CheckCondDB          INFO Event time (UTC) : 2010-10-18 23:00
CheckCondDB          INFO  TCK:           0 OdinFraction:  0 Randomrate:    0 LHCfrequency:  11245 BB RandomRate: 697.9 bunches:       295 absolutescale: 1.634e-11
CheckCondDB          INFO Generate event at unix time: 1287702049
CheckCondDB          INFO Event time (UTC) : 2010-10-21 23:00
CheckCondDB          INFO  TCK:           0 OdinFraction:  0 Randomrate:    0 LHCfrequency:  11245 BB RandomRate: 697.9 bunches:       295 absolutescale: 1.634e-11
CheckCondDB          INFO Generate event at unix time: 1287961249
CheckCondDB          INFO Event time (UTC) : 2010-10-24 23:00
CheckCondDB          INFO  TCK:           0 OdinFraction:  0 Randomrate:    0 LHCfrequency:  11245 BB RandomRate: 697.9 bunches:       295 absolutescale: 1.634e-11
CheckCondDB          INFO Generate event at unix time: 1288220449
CheckCondDB          INFO Event time (UTC) : 2010-10-27 23:00
CheckCondDB          INFO  TCK:           0 OdinFraction:  0 Randomrate:    0 LHCfrequency:  11245 BB RandomRate: 697.9 bunches:       -99999 absolutescale: 1.634e-11
CheckCondDB          INFO Generate event at unix time: 1288479649
CheckCondDB          INFO Event time (UTC) : 2010-10-30 23:00
CheckCondDB          INFO  TCK:           0 OdinFraction:  0 Randomrate:    0 LHCfrequency:  11245 BB RandomRate: 697.9 bunches:       -99999 absolutescale: 1.634e-11
CheckCondDB          INFO Generate event at unix time: 1288738849
CheckCondDB          INFO Event time (UTC) : 2010-11-02 23:00
CheckCondDB          INFO  TCK:           0 OdinFraction:  0 Randomrate:    0 LHCfrequency:  11245 BB RandomRate: 697.9 bunches:       -99999 absolutescale: 1.634e-11
CheckCondDB          INFO Generate event at unix time: 1288998049
CheckCondDB          INFO Event time (UTC) : 2010-11-05 23:00
CheckCondDB          INFO  TCK:           0 OdinFraction:  0 Randomrate:    0 LHCfrequency:  11245 BB RandomRate: 697.9 bunches:       -99999 absolutescale: 1.634e-11
CheckCondDB          INFO Generate event at unix time: 1289257249
CheckCondDB          INFO Event time (UTC) : 2010-11-08 23:00
CheckCondDB          INFO  TCK:           0 OdinFraction:  0 Randomrate:    0 LHCfrequency:  11245 BB RandomRate: 697.9 bunches:       -99999 absolutescale: 1.634e-11
CheckCondDB          INFO Generate event at unix time: 1289516449
CheckCondDB          INFO Event time (UTC) : 2010-11-11 23:00
CheckCondDB          INFO  TCK:           0 OdinFraction:  0 Randomrate:    0 LHCfrequency:  11245 BB RandomRate: 697.9 bunches:       -99999 absolutescale: 1.634e-11
CheckCondDB          INFO Generate event at unix time: 1289775649
CheckCondDB          INFO Event time (UTC) : 2010-11-14 23:00
CheckCondDB          INFO  TCK:           0 OdinFraction:  0 Randomrate:    0 LHCfrequency:  11245 BB RandomRate: 697.9 bunches:       -99999 absolutescale: 1.634e-11
CheckCondDB          INFO Generate event at unix time: 1290034849
CheckCondDB          INFO Event time (UTC) : 2010-11-17 23:00
CheckCondDB          INFO  TCK:           0 OdinFraction:  0 Randomrate:    0 LHCfrequency:  11245 BB RandomRate: 697.9 bunches:       -99999 absolutescale: 1.634e-11
CheckCondDB          INFO Generate event at unix time: 1290294049
CheckCondDB          INFO Event time (UTC) : 2010-11-20 23:00
CheckCondDB          INFO  TCK:           0 OdinFraction:  0 Randomrate:    0 LHCfrequency:  11245 BB RandomRate: 697.9 bunches:       -99999 absolutescale: 1.634e-11
CheckCondDB          INFO ========== Probe DB: END   ==========
ApplicationMgr       INFO Application Manager Stopped successfully
EventLoopMgr         INFO Histograms converted successfully according to request.
ToolSvc              INFO Removing all tools created by ToolSvc
ToolSvc.Sequenc...   INFO --------------------------------------------------------------------------------------------------
ToolSvc.Sequenc...   INFO This machine has a speed about   3.55 times the speed of a 2.8 GHz Xeon.
ToolSvc.Sequenc...   INFO Algorithm          (millisec) |    <user> |   <clock> |      min       max    sigma | entries | total (s) |
ToolSvc.Sequenc...   INFO --------------------------------------------------------------------------------------------------
ToolSvc.Sequenc...   INFO CheckDB                       |     0.000 |     0.000 |    0.000       0.0     0.00 |       0 |     0.000 |
ToolSvc.Sequenc...   INFO   CheckCondDB                 |     0.000 |     0.000 |    0.000       0.0     0.00 |       0 |     0.000 |
ToolSvc.Sequenc...   INFO --------------------------------------------------------------------------------------------------
ApplicationMgr       INFO Application Manager Finalized successfully
ApplicationMgr       INFO Application Manager Terminated successfully
